{
  "project_info": {
    "project_number": "401047615086",
    "firebase_url": "https://najez-1ba50.firebaseio.com",
    "project_id": "najez-1ba50",
    "storage_bucket": "najez-1ba50.appspot.com"
  },
  "client": [
    {
      "client_info": {
        "mobilesdk_app_id": "1:401047615086:android:c28e586478590c83",
        "android_client_info": {
          "package_name": "com.techconlabs.najezdriver"
        }
      },
      "oauth_client": [
        {
          "client_id": "401047615086-0qhjogqgl4nnndhs2c6gb42ed6no8bob.apps.googleusercontent.com",
          "client_type": 1,
          "android_info": {
            "package_name": "com.techconlabs.najezdriver",
            "certificate_hash": "9ddecff7766df1f083c64a241c0cc2d64372005d"
          }
        },
        {
          "client_id": "401047615086-s5emucnk6u6p7vdve3gj67l3c3hgfsu9.apps.googleusercontent.com",
          "client_type": 3
        }
      ],
      "api_key": [
        {
          "current_key": "AIzaSyDEvCnEEaCkFCO1eOoymSpSXb9dtQax_Rs"
        }
      ],
      "services": {
        "analytics_service": {
          "status": 1
        },
        "appinvite_service": {
          "status": 2,
          "other_platform_oauth_client": [
            {
              "client_id": "401047615086-s5emucnk6u6p7vdve3gj67l3c3hgfsu9.apps.googleusercontent.com",
              "client_type": 3
            }
          ]
        },
        "ads_service": {
          "status": 2
        }
      }
    }
  ],
  "configuration_version": "1"
}